#
# There is insufficient memory for the Java Runtime Environment to continue.
# Native memory allocation (mmap) failed to map 331350016 bytes for committing reserved memory.
# Possible reasons:
#   The system is out of physical RAM or swap space
#   In 32 bit mode, the process size limit was hit
# Possible solutions:
#   Reduce memory load on the system
#   Increase physical memory or swap space
#   Check if swap backing store is full
#   Use 64 bit Java on a 64 bit OS
#   Decrease Java heap size (-Xmx/-Xms)
#   Decrease number of Java threads
#   Decrease Java thread stack sizes (-Xss)
#   Set larger code cache with -XX:ReservedCodeCacheSize=
# This output file may be truncated or incomplete.
#
#  Out of Memory Error (os_linux.cpp:2627), pid=10544, tid=140155952641792
#
# JRE version: Java(TM) SE Runtime Environment (8.0_77-b03) (build 1.8.0_77-b03)
# Java VM: Java HotSpot(TM) 64-Bit Server VM (25.77-b03 mixed mode linux-amd64 compressed oops)
# Failed to write core dump. Core dumps have been disabled. To enable core dumping, try "ulimit -c unlimited" before starting Java again
#

---------------  T H R E A D  ---------------

Current thread (0x00007f78ac078000):  VMThread [stack: 0x00007f7899b53000,0x00007f7899c54000] [id=10554]

Stack: [0x00007f7899b53000,0x00007f7899c54000],  sp=0x00007f7899c521a0,  free space=1020k
Native frames: (J=compiled Java code, j=interpreted, Vv=VM code, C=native code)
V  [libjvm.so+0xaba7ea]  VMError::report_and_die()+0x2ba
V  [libjvm.so+0x4f9e3b]  report_vm_out_of_memory(char const*, int, unsigned long, VMErrorType, char const*)+0x8b
V  [libjvm.so+0x91b613]  os::Linux::commit_memory_impl(char*, unsigned long, bool)+0x103
V  [libjvm.so+0x91bb69]  os::pd_commit_memory(char*, unsigned long, unsigned long, bool)+0x29
V  [libjvm.so+0x915e6a]  os::commit_memory(char*, unsigned long, unsigned long, bool)+0x2a
V  [libjvm.so+0x989543]  PSVirtualSpace::expand_by(unsigned long)+0x53
V  [libjvm.so+0x979e30]  PSOldGen::expand(unsigned long)+0x170
V  [libjvm.so+0x97a03b]  PSOldGen::resize(unsigned long)+0x1cb
V  [libjvm.so+0x981d11]  PSParallelCompact::invoke_no_policy(bool)+0x991
V  [libjvm.so+0x98766d]  PSScavenge::invoke()+0x1ad
V  [libjvm.so+0x93f300]  ParallelScavengeHeap::failed_mem_allocate(unsigned long)+0x70
V  [libjvm.so+0xabc207]  VM_ParallelGCFailedAllocation::doit()+0x97
V  [libjvm.so+0xac3c35]  VM_Operation::evaluate()+0x55
V  [libjvm.so+0xac200a]  VMThread::evaluate_operation(VM_Operation*)+0xba
V  [libjvm.so+0xac238e]  VMThread::loop()+0x1ce
V  [libjvm.so+0xac2800]  VMThread::run()+0x70
V  [libjvm.so+0x91d9d8]  java_start(Thread*)+0x108

VM_Operation (0x00007f789897fd20): ParallelGCFailedAllocation, mode: safepoint, requested by thread 0x00007f78ac185000


---------------  P R O C E S S  ---------------

Java Threads: ( => current thread )
  0x00007f78ac188800 JavaThread "pool-2-thread-4" [_thread_blocked, id=10567, stack(0x00007f789867f000,0x00007f7898780000)]
  0x00007f78ac187000 JavaThread "pool-2-thread-3" [_thread_blocked, id=10566, stack(0x00007f7898780000,0x00007f7898881000)]
  0x00007f78ac185000 JavaThread "pool-2-thread-2" [_thread_blocked, id=10565, stack(0x00007f7898881000,0x00007f7898982000)]
  0x00007f78ac184000 JavaThread "pool-3-thread-1" [_thread_blocked, id=10564, stack(0x00007f7898982000,0x00007f7898a83000)]
  0x00007f78ac181800 JavaThread "pool-2-thread-1" [_thread_blocked, id=10563, stack(0x00007f7898a83000,0x00007f7898b84000)]
  0x00007f78ac0c2000 JavaThread "Service Thread" daemon [_thread_blocked, id=10561, stack(0x00007f7898d69000,0x00007f7898e6a000)]
  0x00007f78ac0be800 JavaThread "C1 CompilerThread2" daemon [_thread_blocked, id=10560, stack(0x00007f7898e6a000,0x00007f7898f6b000)]
  0x00007f78ac0bd000 JavaThread "C2 CompilerThread1" daemon [_thread_blocked, id=10559, stack(0x00007f7898f6b000,0x00007f789906c000)]
  0x00007f78ac0ba000 JavaThread "C2 CompilerThread0" daemon [_thread_blocked, id=10558, stack(0x00007f789906c000,0x00007f789916d000)]
  0x00007f78ac0b8800 JavaThread "Signal Dispatcher" daemon [_thread_blocked, id=10557, stack(0x00007f789916d000,0x00007f789926e000)]
  0x00007f78ac084800 JavaThread "Finalizer" daemon [_thread_blocked, id=10556, stack(0x00007f7899951000,0x00007f7899a52000)]
  0x00007f78ac080000 JavaThread "Reference Handler" daemon [_thread_blocked, id=10555, stack(0x00007f7899a52000,0x00007f7899b53000)]
  0x00007f78ac00a000 JavaThread "main" [_thread_blocked, id=10549, stack(0x00007f78b325e000,0x00007f78b335f000)]

Other Threads:
=>0x00007f78ac078000 VMThread [stack: 0x00007f7899b53000,0x00007f7899c54000] [id=10554]
  0x00007f78ac0c4800 WatcherThread [stack: 0x00007f7898c68000,0x00007f7898d69000] [id=10562]

VM state:at safepoint (normal execution)

VM Mutex/Monitor currently owned by a thread:  ([mutex/lock_event])
[0x00007f78ac005e70] ExpandHeap_lock - owner thread: 0x00007f78ac078000
[0x00007f78ac0064f0] Threads_lock - owner thread: 0x00007f78ac078000
[0x00007f78ac0069f0] Heap_lock - owner thread: 0x00007f78ac185000

Heap:
 PSYoungGen      total 856576K, used 0K [0x000000076ab00000, 0x00000007b7400000, 0x00000007c0000000)
  eden space 633344K, 0% used [0x000000076ab00000,0x000000076ab00000,0x0000000791580000)
  from space 223232K, 0% used [0x0000000791580000,0x0000000791580000,0x000000079ef80000)
  to   space 261120K, 0% used [0x00000007a7500000,0x00000007a7500000,0x00000007b7400000)
 ParOldGen       total 744960K, used 699329K [0x00000006c0000000, 0x00000006ed780000, 0x000000076ab00000)
  object space 744960K, 93% used [0x00000006c0000000,0x00000006eaaf0588,0x00000006ed780000)
 Metaspace       used 6616K, capacity 7320K, committed 7680K, reserved 1056768K
  class space    used 618K, capacity 656K, committed 768K, reserved 1048576K

Card table byte_map: [0x00007f789c7ff000,0x00007f789d000000] byte_map_base: 0x00007f78991ff000

Marking Bits: (ParMarkBitMap*) 0x00007f78b2734100
 Begin Bits: [0x00007f7874000000, 0x00007f7878000000)
 End Bits:   [0x00007f7878000000, 0x00007f787c000000)

Polling page: 0x00007f78b3381000

CodeCache: size=245760Kb used=13730Kb max_used=13772Kb free=232029Kb
 bounds [0x00007f789d000000, 0x00007f789dd90000, 0x00007f78ac000000]
 total_blobs=2990 nmethods=2721 adapters=182
 compilation: enabled

Compilation events (10 events):
Event: 31,623 Thread 0x00007f78ac0bd000 nmethod 2918% 0x00007f789dd49450 code [0x00007f789dd49840, 0x00007f789dd4ce48]
Event: 31,623 Thread 0x00007f78ac0bd000 2900       4       com.android.dx.ssa.back.FirstFitLocalCombiningAllocator::findNextUnreservedRopReg (68 bytes)
Event: 31,632 Thread 0x00007f78ac0bd000 nmethod 2900 0x00007f789dd1f2d0 code [0x00007f789dd1f440, 0x00007f789dd1f8b8]
Event: 31,632 Thread 0x00007f78ac0bd000 2774       4       com.android.dx.ssa.SsaBasicBlock::getCountPhiInsns (45 bytes)
Event: 31,637 Thread 0x00007f78ac0bd000 nmethod 2774 0x00007f789dcb8850 code [0x00007f789dcb89c0, 0x00007f789dcb8c18]
Event: 31,637 Thread 0x00007f78ac0bd000 2913       4       com.android.dx.ssa.back.InterferenceGraph::<init> (42 bytes)
Event: 31,666 Thread 0x00007f78ac0bd000 nmethod 2913 0x00007f789dcb8f50 code [0x00007f789dcb9120, 0x00007f789dcb9fb8]
Event: 31,666 Thread 0x00007f78ac0bd000 2803       4       com.android.dx.ssa.SCCP::run (298 bytes)
Event: 31,759 Thread 0x00007f78ac0ba000 nmethod 2917 0x00007f789dd75f10 code [0x00007f789dd76640, 0x00007f789dd7e288]
Event: 31,760 Thread 0x00007f78ac0ba000 2593       4       com.android.dx.ssa.InterferenceRegisterMapper::addInterfence (62 bytes)

GC Heap History (10 events):
Event: 17,577 GC heap after
Heap after GC invocations=15 (full 3):
 PSYoungGen      total 714752K, used 90794K [0x000000076ab00000, 0x00000007a5280000, 0x00000007c0000000)
  eden space 593920K, 0% used [0x000000076ab00000,0x000000076ab00000,0x000000078ef00000)
  from space 120832K, 75% used [0x0000000798900000,0x000000079e1aa870,0x000000079ff00000)
  to   space 157696K, 0% used [0x000000078ef00000,0x000000078ef00000,0x0000000798900000)
 ParOldGen       total 467456K, used 283976K [0x00000006c0000000, 0x00000006dc880000, 0x000000076ab00000)
  object space 467456K, 60% used [0x00000006c0000000,0x00000006d15521b0,0x00000006dc880000)
 Metaspace       used 6604K, capacity 7320K, committed 7680K, reserved 1056768K
  class space    used 616K, capacity 656K, committed 768K, reserved 1048576K
}
Event: 20,253 GC heap before
{Heap before GC invocations=16 (full 3):
 PSYoungGen      total 714752K, used 684714K [0x000000076ab00000, 0x00000007a5280000, 0x00000007c0000000)
  eden space 593920K, 100% used [0x000000076ab00000,0x000000078ef00000,0x000000078ef00000)
  from space 120832K, 75% used [0x0000000798900000,0x000000079e1aa870,0x000000079ff00000)
  to   space 157696K, 0% used [0x000000078ef00000,0x000000078ef00000,0x0000000798900000)
 ParOldGen       total 467456K, used 283976K [0x00000006c0000000, 0x00000006dc880000, 0x000000076ab00000)
  object space 467456K, 60% used [0x00000006c0000000,0x00000006d15521b0,0x00000006dc880000)
 Metaspace       used 6616K, capacity 7320K, committed 7680K, reserved 1056768K
  class space    used 618K, capacity 656K, committed 768K, reserved 1048576K
Event: 20,935 GC heap after
Heap after GC invocations=16 (full 3):
 PSYoungGen      total 751616K, used 99536K [0x000000076ab00000, 0x00000007a9000000, 0x00000007c0000000)
  eden space 593920K, 0% used [0x000000076ab00000,0x000000076ab00000,0x000000078ef00000)
  from space 157696K, 63% used [0x000000078ef00000,0x00000007950340e8,0x0000000798900000)
  to   space 164352K, 0% used [0x000000079ef80000,0x000000079ef80000,0x00000007a9000000)
 ParOldGen       total 467456K, used 375795K [0x00000006c0000000, 0x00000006dc880000, 0x000000076ab00000)
  object space 467456K, 80% used [0x00000006c0000000,0x00000006d6efcff8,0x00000006dc880000)
 Metaspace       used 6616K, capacity 7320K, committed 7680K, reserved 1056768K
  class space    used 618K, capacity 656K, committed 768K, reserved 1048576K
}
Event: 26,843 GC heap before
{Heap before GC invocations=17 (full 3):
 PSYoungGen      total 751616K, used 693456K [0x000000076ab00000, 0x00000007a9000000, 0x00000007c0000000)
  eden space 593920K, 100% used [0x000000076ab00000,0x000000078ef00000,0x000000078ef00000)
  from space 157696K, 63% used [0x000000078ef00000,0x00000007950340e8,0x0000000798900000)
  to   space 164352K, 0% used [0x000000079ef80000,0x000000079ef80000,0x00000007a9000000)
 ParOldGen       total 467456K, used 375795K [0x00000006c0000000, 0x00000006dc880000, 0x000000076ab00000)
  object space 467456K, 80% used [0x00000006c0000000,0x00000006d6efcff8,0x00000006dc880000)
 Metaspace       used 6616K, capacity 7320K, committed 7680K, reserved 1056768K
  class space    used 618K, capacity 656K, committed 768K, reserved 1048576K
Event: 27,154 GC heap after
Heap after GC invocations=17 (full 3):
 PSYoungGen      total 797696K, used 164339K [0x000000076ab00000, 0x00000007afa00000, 0x00000007c0000000)
  eden space 633344K, 0% used [0x000000076ab00000,0x000000076ab00000,0x0000000791580000)
  from space 164352K, 99% used [0x000000079ef80000,0x00000007a8ffcc90,0x00000007a9000000)
  to   space 223232K, 0% used [0x0000000791580000,0x0000000791580000,0x000000079ef80000)
 ParOldGen       total 467456K, used 458652K [0x00000006c0000000, 0x00000006dc880000, 0x000000076ab00000)
  object space 467456K, 98% used [0x00000006c0000000,0x00000006dbfe73f0,0x00000006dc880000)
 Metaspace       used 6616K, capacity 7320K, committed 7680K, reserved 1056768K
  class space    used 618K, capacity 656K, committed 768K, reserved 1048576K
}
Event: 27,154 GC heap before
{Heap before GC invocations=18 (full 4):
 PSYoungGen      total 797696K, used 164339K [0x000000076ab00000, 0x00000007afa00000, 0x00000007c0000000)
  eden space 633344K, 0% used [0x000000076ab00000,0x000000076ab00000,0x0000000791580000)
  from space 164352K, 99% used [0x000000079ef80000,0x00000007a8ffcc90,0x00000007a9000000)
  to   space 223232K, 0% used [0x0000000791580000,0x0000000791580000,0x000000079ef80000)
 ParOldGen       total 467456K, used 458652K [0x00000006c0000000, 0x00000006dc880000, 0x000000076ab00000)
  object space 467456K, 98% used [0x00000006c0000000,0x00000006dbfe73f0,0x00000006dc880000)
 Metaspace       used 6616K, capacity 7320K, committed 7680K, reserved 1056768K
  class space    used 618K, capacity 656K, committed 768K, reserved 1048576K
Event: 29,627 GC heap after
Heap after GC invocations=18 (full 4):
 PSYoungGen      total 797696K, used 147343K [0x000000076ab00000, 0x00000007afa00000, 0x00000007c0000000)
  eden space 633344K, 0% used [0x000000076ab00000,0x000000076ab00000,0x0000000791580000)
  from space 164352K, 89% used [0x000000079ef80000,0x00000007a7f63cf8,0x00000007a9000000)
  to   space 223232K, 0% used [0x0000000791580000,0x0000000791580000,0x000000079ef80000)
 ParOldGen       total 744960K, used 467372K [0x00000006c0000000, 0x00000006ed780000, 0x000000076ab00000)
  object space 744960K, 62% used [0x00000006c0000000,0x00000006dc86b380,0x00000006ed780000)
 Metaspace       used 6616K, capacity 7320K, committed 7680K, reserved 1056768K
  class space    used 618K, capacity 656K, committed 768K, reserved 1048576K
}
Event: 31,784 GC heap before
{Heap before GC invocations=19 (full 4):
 PSYoungGen      total 797696K, used 780687K [0x000000076ab00000, 0x00000007afa00000, 0x00000007c0000000)
  eden space 633344K, 100% used [0x000000076ab00000,0x0000000791580000,0x0000000791580000)
  from space 164352K, 89% used [0x000000079ef80000,0x00000007a7f63cf8,0x00000007a9000000)
  to   space 223232K, 0% used [0x0000000791580000,0x0000000791580000,0x000000079ef80000)
 ParOldGen       total 744960K, used 467372K [0x00000006c0000000, 0x00000006ed780000, 0x000000076ab00000)
  object space 744960K, 62% used [0x00000006c0000000,0x00000006dc86b380,0x00000006ed780000)
 Metaspace       used 6616K, capacity 7320K, committed 7680K, reserved 1056768K
  class space    used 618K, capacity 656K, committed 768K, reserved 1048576K
Event: 32,210 GC heap after
Heap after GC invocations=19 (full 4):
 PSYoungGen      total 856576K, used 219416K [0x000000076ab00000, 0x00000007b7400000, 0x00000007c0000000)
  eden space 633344K, 0% used [0x000000076ab00000,0x000000076ab00000,0x0000000791580000)
  from space 223232K, 98% used [0x0000000791580000,0x000000079ebc6308,0x000000079ef80000)
  to   space 261120K, 0% used [0x00000007a7500000,0x00000007a7500000,0x00000007b7400000)
 ParOldGen       total 744960K, used 613147K [0x00000006c0000000, 0x00000006ed780000, 0x000000076ab00000)
  object space 744960K, 82% used [0x00000006c0000000,0x00000006e56c6d08,0x00000006ed780000)
 Metaspace       used 6616K, capacity 7320K, committed 7680K, reserved 1056768K
  class space    used 618K, capacity 656K, committed 768K, reserved 1048576K
}
Event: 32,210 GC heap before
{Heap before GC invocations=20 (full 5):
 PSYoungGen      total 856576K, used 219416K [0x000000076ab00000, 0x00000007b7400000, 0x00000007c0000000)
  eden space 633344K, 0% used [0x000000076ab00000,0x000000076ab00000,0x0000000791580000)
  from space 223232K, 98% used [0x0000000791580000,0x000000079ebc6308,0x000000079ef80000)
  to   space 261120K, 0% used [0x00000007a7500000,0x00000007a7500000,0x00000007b7400000)
 ParOldGen       total 744960K, used 613147K [0x00000006c0000000, 0x00000006ed780000, 0x000000076ab00000)
  object space 744960K, 82% used [0x00000006c0000000,0x00000006e56c6d08,0x00000006ed780000)
 Metaspace       used 6616K, capacity 7320K, committed 7680K, reserved 1056768K
  class space    used 618K, capacity 656K, committed 768K, reserved 1048576K

Deoptimization events (10 events):
Event: 23,136 Thread 0x00007f78ac00a000 Uncommon trap: reason=unstable_if action=reinterpret pc=0x00007f789d36b61c method=com.android.dx.ssa.SetFactory.makeLivenessSet(I)Lcom/android/dx/util/IntSet; @ 4
Event: 23,136 Thread 0x00007f78ac00a000 Uncommon trap: reason=unstable_if action=reinterpret pc=0x00007f789d314a00 method=com.android.dx.ssa.SetFactory.makeLivenessSet(I)Lcom/android/dx/util/IntSet; @ 4
Event: 23,143 Thread 0x00007f78ac00a000 Uncommon trap: reason=class_check action=maybe_recompile pc=0x00007f789d396a84 method=com.android.dx.ssa.back.InterferenceGraph.add(II)V @ 19
Event: 23,143 Thread 0x00007f78ac00a000 Uncommon trap: reason=class_check action=maybe_recompile pc=0x00007f789d396a84 method=com.android.dx.ssa.back.InterferenceGraph.add(II)V @ 19
Event: 23,143 Thread 0x00007f78ac00a000 Uncommon trap: reason=class_check action=maybe_recompile pc=0x00007f789d396a84 method=com.android.dx.ssa.back.InterferenceGraph.add(II)V @ 19
Event: 23,143 Thread 0x00007f78ac00a000 Uncommon trap: reason=class_check action=maybe_recompile pc=0x00007f789d396a84 method=com.android.dx.ssa.back.InterferenceGraph.add(II)V @ 19
Event: 23,227 Thread 0x00007f78ac00a000 Uncommon trap: reason=class_check action=maybe_recompile pc=0x00007f789db1c76c method=com.android.dx.ssa.back.InterferenceGraph.mergeInterferenceSet(ILcom/android/dx/util/IntSet;)V @ 20
Event: 29,770 Thread 0x00007f78ac187000 Uncommon trap: reason=class_check action=maybe_recompile pc=0x00007f789db1c76c method=com.android.dx.ssa.back.InterferenceGraph.mergeInterferenceSet(ILcom/android/dx/util/IntSet;)V @ 20
Event: 29,969 Thread 0x00007f78ac181800 Uncommon trap: reason=class_check action=maybe_recompile pc=0x00007f789db1c76c method=com.android.dx.ssa.back.InterferenceGraph.mergeInterferenceSet(ILcom/android/dx/util/IntSet;)V @ 20
Event: 30,067 Thread 0x00007f78ac188800 Uncommon trap: reason=class_check action=maybe_recompile pc=0x00007f789db1c76c method=com.android.dx.ssa.back.InterferenceGraph.mergeInterferenceSet(ILcom/android/dx/util/IntSet;)V @ 20

Internal exceptions (7 events):
Event: 0,080 Thread 0x00007f78ac00a000 Exception <a 'java/lang/NoSuchMethodError': Method sun.misc.Unsafe.defineClass(Ljava/lang/String;[BII)Ljava/lang/Class; name or signature does not match> (0x000000076ab07cc0) thrown at [/HUDSON/workspace/8-2-build-linux-amd64/jdk8u77/6540/hotspot/src/shar
Event: 0,080 Thread 0x00007f78ac00a000 Exception <a 'java/lang/NoSuchMethodError': Method sun.misc.Unsafe.prefetchRead(Ljava/lang/Object;J)V name or signature does not match> (0x000000076ab07fa8) thrown at [/HUDSON/workspace/8-2-build-linux-amd64/jdk8u77/6540/hotspot/src/share/vm/prims/jni.cpp
Event: 1,415 Thread 0x00007f78ac181800 Implicit null exception at 0x00007f789d373106 to 0x00007f789d373299
Event: 2,267 Thread 0x00007f78ac188800 Exception <a 'java/lang/ArrayIndexOutOfBoundsException': 18> (0x0000000771d8fcc8) thrown at [/HUDSON/workspace/8-2-build-linux-amd64/jdk8u77/6540/hotspot/src/share/vm/interpreter/interpreterRuntime.cpp, line 366]
Event: 2,267 Thread 0x00007f78ac188800 Exception <a 'java/lang/ArrayIndexOutOfBoundsException': 145> (0x0000000771d91848) thrown at [/HUDSON/workspace/8-2-build-linux-amd64/jdk8u77/6540/hotspot/src/share/vm/interpreter/interpreterRuntime.cpp, line 366]
Event: 2,268 Thread 0x00007f78ac188800 Exception <a 'java/lang/ArrayIndexOutOfBoundsException': 40> (0x0000000771d92b30) thrown at [/HUDSON/workspace/8-2-build-linux-amd64/jdk8u77/6540/hotspot/src/share/vm/interpreter/interpreterRuntime.cpp, line 366]
Event: 12,500 Thread 0x00007f78ac185000 Implicit null exception at 0x00007f789db7beae to 0x00007f789db7cd2d

Events (10 events):
Event: 31,714 Thread 0x00007f78ac185000 DEOPT UNPACKING pc=0x00007f789d047633 sp=0x00007f789897fa40 mode 0
Event: 31,740 Thread 0x00007f78ac185000 DEOPT PACKING pc=0x00007f789d3661a8 sp=0x00007f789897fc40
Event: 31,740 Thread 0x00007f78ac185000 DEOPT UNPACKING pc=0x00007f789d047633 sp=0x00007f789897fa40 mode 0
Event: 31,748 Thread 0x00007f78ac181800 DEOPT PACKING pc=0x00007f789d3661a8 sp=0x00007f7898b81d60
Event: 31,748 Thread 0x00007f78ac181800 DEOPT UNPACKING pc=0x00007f789d047633 sp=0x00007f7898b81b60 mode 0
Event: 31,762 Thread 0x00007f78ac185000 DEOPT PACKING pc=0x00007f789d3661a8 sp=0x00007f789897fc40
Event: 31,762 Thread 0x00007f78ac185000 DEOPT UNPACKING pc=0x00007f789d047633 sp=0x00007f789897fa40 mode 0
Event: 31,769 Thread 0x00007f78ac188800 DEOPT PACKING pc=0x00007f789d3661a8 sp=0x00007f789877df40
Event: 31,769 Thread 0x00007f78ac188800 DEOPT UNPACKING pc=0x00007f789d047633 sp=0x00007f789877dd40 mode 0
Event: 31,784 Executing VM operation: ParallelGCFailedAllocation


Dynamic libraries:
00400000-00401000 r-xp 00000000 08:13 137636                             /usr/lib/jvm/java-8-oracle/bin/java
00600000-00601000 rw-p 00000000 08:13 137636                             /usr/lib/jvm/java-8-oracle/bin/java
01e4f000-01e70000 rw-p 00000000 00:00 0                                  [heap]
6c0000000-6ed780000 rw-p 00000000 00:00 0 
701380000-76ab00000 ---p 00000000 00:00 0 
76ab00000-7b7400000 rw-p 00000000 00:00 0 
7b7400000-7c0000000 ---p 00000000 00:00 0 
7c0000000-7c00c0000 rw-p 00000000 00:00 0 
7c00c0000-800000000 ---p 00000000 00:00 0 
7f783c000000-7f783c02d000 rw-p 00000000 00:00 0 
7f783c02d000-7f7840000000 ---p 00000000 00:00 0 
7f7844000000-7f7844045000 rw-p 00000000 00:00 0 
7f7844045000-7f7848000000 ---p 00000000 00:00 0 
7f7848000000-7f7848043000 rw-p 00000000 00:00 0 
7f7848043000-7f784c000000 ---p 00000000 00:00 0 
7f784c000000-7f784c078000 rw-p 00000000 00:00 0 
7f784c078000-7f7850000000 ---p 00000000 00:00 0 
7f7850000000-7f7850021000 rw-p 00000000 00:00 0 
7f7850021000-7f7854000000 ---p 00000000 00:00 0 
7f7854000000-7f7854021000 rw-p 00000000 00:00 0 
7f7854021000-7f7858000000 ---p 00000000 00:00 0 
7f7858000000-7f7858021000 rw-p 00000000 00:00 0 
7f7858021000-7f785c000000 ---p 00000000 00:00 0 
7f785c000000-7f785d3d2000 rw-p 00000000 00:00 0 
7f785d3d2000-7f7860000000 ---p 00000000 00:00 0 
7f7860000000-7f7860b89000 rw-p 00000000 00:00 0 
7f7860b89000-7f7864000000 ---p 00000000 00:00 0 
7f7864000000-7f7864021000 rw-p 00000000 00:00 0 
7f7864021000-7f7868000000 ---p 00000000 00:00 0 
7f7868000000-7f7869c49000 rw-p 00000000 00:00 0 
7f7869c49000-7f786c000000 ---p 00000000 00:00 0 
7f786c000000-7f786c021000 rw-p 00000000 00:00 0 
7f786c021000-7f7870000000 ---p 00000000 00:00 0 
7f7870000000-7f7870021000 rw-p 00000000 00:00 0 
7f7870021000-7f7874000000 ---p 00000000 00:00 0 
7f7874000000-7f787c000000 rw-p 00000000 00:00 0 
7f787c000000-7f787c021000 rw-p 00000000 00:00 0 
7f787c021000-7f7880000000 ---p 00000000 00:00 0 
7f7880000000-7f78802d0000 rw-p 00000000 00:00 0 
7f78802d0000-7f7884000000 ---p 00000000 00:00 0 
7f7884000000-7f7884021000 rw-p 00000000 00:00 0 
7f7884021000-7f7888000000 ---p 00000000 00:00 0 
7f788c000000-7f788c021000 rw-p 00000000 00:00 0 
7f788c021000-7f7890000000 ---p 00000000 00:00 0 
7f7894000000-7f7894021000 rw-p 00000000 00:00 0 
7f7894021000-7f7898000000 ---p 00000000 00:00 0 
7f789867f000-7f7898682000 ---p 00000000 00:00 0 
7f7898682000-7f7898780000 rw-p 00000000 00:00 0                          [stack:10567]
7f7898780000-7f7898783000 ---p 00000000 00:00 0 
7f7898783000-7f7898881000 rw-p 00000000 00:00 0                          [stack:10566]
7f7898881000-7f7898884000 ---p 00000000 00:00 0 
7f7898884000-7f7898982000 rw-p 00000000 00:00 0                          [stack:10565]
7f7898982000-7f7898985000 ---p 00000000 00:00 0 
7f7898985000-7f7898a83000 rw-p 00000000 00:00 0                          [stack:10564]
7f7898a83000-7f7898a86000 ---p 00000000 00:00 0 
7f7898a86000-7f7898b84000 rw-p 00000000 00:00 0                          [stack:10563]
7f7898b84000-7f7898c68000 r--s 009a8000 08:13 1658709                    /home/mirza/Downloads/Kebelet/app/build/intermediates/transforms/jarMerging/debug/jars/1/1f/combined.jar
7f7898c68000-7f7898c69000 ---p 00000000 00:00 0 
7f7898c69000-7f7898d69000 rw-p 00000000 00:00 0                          [stack:10562]
7f7898d69000-7f7898d6c000 ---p 00000000 00:00 0 
7f7898d6c000-7f7898e6a000 rw-p 00000000 00:00 0                          [stack:10561]
7f7898e6a000-7f7898e6d000 ---p 00000000 00:00 0 
7f7898e6d000-7f7898f6b000 rw-p 00000000 00:00 0                          [stack:10560]
7f7898f6b000-7f7898f6e000 ---p 00000000 00:00 0 
7f7898f6e000-7f789906c000 rw-p 00000000 00:00 0                          [stack:10559]
7f789906c000-7f789906f000 ---p 00000000 00:00 0 
7f789906f000-7f789916d000 rw-p 00000000 00:00 0                          [stack:10558]
7f789916d000-7f7899170000 ---p 00000000 00:00 0 
7f7899170000-7f789926e000 rw-p 00000000 00:00 0                          [stack:10557]
7f789926e000-7f7899951000 r--p 00000000 08:13 138462                     /usr/lib/locale/locale-archive
7f7899951000-7f7899954000 ---p 00000000 00:00 0 
7f7899954000-7f7899a52000 rw-p 00000000 00:00 0                          [stack:10556]
7f7899a52000-7f7899a55000 ---p 00000000 00:00 0 
7f7899a55000-7f7899b53000 rw-p 00000000 00:00 0                          [stack:10555]
7f7899b53000-7f7899b54000 ---p 00000000 00:00 0 
7f7899b54000-7f789ac57000 rw-p 00000000 00:00 0                          [stack:10554]
7f789ac57000-7f789ae2f000 r--s 03d1e000 08:13 147646                     /usr/lib/jvm/java-8-oracle/jre/lib/rt.jar
7f789ae2f000-7f789b565000 rw-p 00000000 00:00 0 
7f789b565000-7f789b6a5000 ---p 00000000 00:00 0 
7f789b6a5000-7f789bea5000 rw-p 00000000 00:00 0 
7f789bea5000-7f789bea6000 ---p 00000000 00:00 0 
7f789bea6000-7f789bfa6000 rw-p 00000000 00:00 0                          [stack:10553]
7f789bfa6000-7f789bfa7000 ---p 00000000 00:00 0 
7f789bfa7000-7f789c0a7000 rw-p 00000000 00:00 0                          [stack:10552]
7f789c0a7000-7f789c0a8000 ---p 00000000 00:00 0 
7f789c0a8000-7f789c1a8000 rw-p 00000000 00:00 0                          [stack:10551]
7f789c1a8000-7f789c1a9000 ---p 00000000 00:00 0 
7f789c1a9000-7f789c415000 rw-p 00000000 00:00 0                          [stack:10550]
7f789c415000-7f789c7ff000 ---p 00000000 00:00 0 
7f789c7ff000-7f789c96b000 rw-p 00000000 00:00 0 
7f789c96b000-7f789cd54000 ---p 00000000 00:00 0 
7f789cd54000-7f789cfb9000 rw-p 00000000 00:00 0 
7f789cfb9000-7f789cfff000 ---p 00000000 00:00 0 
7f789cfff000-7f789d000000 rw-p 00000000 00:00 0 
7f789d000000-7f789dd90000 rwxp 00000000 00:00 0 
7f789dd90000-7f78ac000000 ---p 00000000 00:00 0 
7f78ac000000-7f78ac398000 rw-p 00000000 00:00 0 
7f78ac398000-7f78b0000000 ---p 00000000 00:00 0 
7f78b001d000-7f78b0054000 rw-p 00000000 00:00 0 
7f78b0054000-7f78b03dd000 ---p 00000000 00:00 0 
7f78b03dd000-7f78b03f7000 r-xp 00000000 08:13 147865                     /usr/lib/jvm/java-8-oracle/jre/lib/amd64/libzip.so
7f78b03f7000-7f78b05f7000 ---p 0001a000 08:13 147865                     /usr/lib/jvm/java-8-oracle/jre/lib/amd64/libzip.so
7f78b05f7000-7f78b05f8000 rw-p 0001a000 08:13 147865                     /usr/lib/jvm/java-8-oracle/jre/lib/amd64/libzip.so
7f78b05f8000-7f78b0604000 r-xp 00000000 08:13 687121                     /lib/x86_64-linux-gnu/libnss_files-2.21.so
7f78b0604000-7f78b0803000 ---p 0000c000 08:13 687121                     /lib/x86_64-linux-gnu/libnss_files-2.21.so
7f78b0803000-7f78b0804000 r--p 0000b000 08:13 687121                     /lib/x86_64-linux-gnu/libnss_files-2.21.so
7f78b0804000-7f78b0805000 rw-p 0000c000 08:13 687121                     /lib/x86_64-linux-gnu/libnss_files-2.21.so
7f78b0805000-7f78b0810000 r-xp 00000000 08:13 687134                     /lib/x86_64-linux-gnu/libnss_nis-2.21.so
7f78b0810000-7f78b0a0f000 ---p 0000b000 08:13 687134                     /lib/x86_64-linux-gnu/libnss_nis-2.21.so
7f78b0a0f000-7f78b0a10000 r--p 0000a000 08:13 687134                     /lib/x86_64-linux-gnu/libnss_nis-2.21.so
7f78b0a10000-7f78b0a11000 rw-p 0000b000 08:13 687134                     /lib/x86_64-linux-gnu/libnss_nis-2.21.so
7f78b0a11000-7f78b0a28000 r-xp 00000000 08:13 687128                     /lib/x86_64-linux-gnu/libnsl-2.21.so
7f78b0a28000-7f78b0c27000 ---p 00017000 08:13 687128                     /lib/x86_64-linux-gnu/libnsl-2.21.so
7f78b0c27000-7f78b0c28000 r--p 00016000 08:13 687128                     /lib/x86_64-linux-gnu/libnsl-2.21.so
7f78b0c28000-7f78b0c29000 rw-p 00017000 08:13 687128                     /lib/x86_64-linux-gnu/libnsl-2.21.so
7f78b0c29000-7f78b0c2b000 rw-p 00000000 00:00 0 
7f78b0c2b000-7f78b0c33000 r-xp 00000000 08:13 687122                     /lib/x86_64-linux-gnu/libnss_compat-2.21.so
7f78b0c33000-7f78b0e32000 ---p 00008000 08:13 687122                     /lib/x86_64-linux-gnu/libnss_compat-2.21.so
7f78b0e32000-7f78b0e33000 r--p 00007000 08:13 687122                     /lib/x86_64-linux-gnu/libnss_compat-2.21.so
7f78b0e33000-7f78b0e34000 rw-p 00008000 08:13 687122                     /lib/x86_64-linux-gnu/libnss_compat-2.21.so
7f78b0e34000-7f78b0e5e000 r-xp 00000000 08:13 147860                     /usr/lib/jvm/java-8-oracle/jre/lib/amd64/libjava.so
7f78b0e5e000-7f78b105e000 ---p 0002a000 08:13 147860                     /usr/lib/jvm/java-8-oracle/jre/lib/amd64/libjava.so
7f78b105e000-7f78b1060000 rw-p 0002a000 08:13 147860                     /usr/lib/jvm/java-8-oracle/jre/lib/amd64/libjava.so
7f78b1060000-7f78b106d000 r-xp 00000000 08:13 147864                     /usr/lib/jvm/java-8-oracle/jre/lib/amd64/libverify.so
7f78b106d000-7f78b126d000 ---p 0000d000 08:13 147864                     /usr/lib/jvm/java-8-oracle/jre/lib/amd64/libverify.so
7f78b126d000-7f78b126f000 rw-p 0000d000 08:13 147864                     /usr/lib/jvm/java-8-oracle/jre/lib/amd64/libverify.so
7f78b126f000-7f78b1276000 r-xp 00000000 08:13 687119                     /lib/x86_64-linux-gnu/librt-2.21.so
7f78b1276000-7f78b1475000 ---p 00007000 08:13 687119                     /lib/x86_64-linux-gnu/librt-2.21.so
7f78b1475000-7f78b1476000 r--p 00006000 08:13 687119                     /lib/x86_64-linux-gnu/librt-2.21.so
7f78b1476000-7f78b1477000 rw-p 00007000 08:13 687119                     /lib/x86_64-linux-gnu/librt-2.21.so
7f78b1477000-7f78b157e000 r-xp 00000000 08:13 687136                     /lib/x86_64-linux-gnu/libm-2.21.so
7f78b157e000-7f78b177d000 ---p 00107000 08:13 687136                     /lib/x86_64-linux-gnu/libm-2.21.so
7f78b177d000-7f78b177e000 r--p 00106000 08:13 687136                     /lib/x86_64-linux-gnu/libm-2.21.so
7f78b177e000-7f78b177f000 rw-p 00107000 08:13 687136                     /lib/x86_64-linux-gnu/libm-2.21.so
7f78b177f000-7f78b243e000 r-xp 00000000 08:13 147888                     /usr/lib/jvm/java-8-oracle/jre/lib/amd64/server/libjvm.so
7f78b243e000-7f78b263d000 ---p 00cbf000 08:13 147888                     /usr/lib/jvm/java-8-oracle/jre/lib/amd64/server/libjvm.so
7f78b263d000-7f78b2716000 rw-p 00cbe000 08:13 147888                     /usr/lib/jvm/java-8-oracle/jre/lib/amd64/server/libjvm.so
7f78b2716000-7f78b275f000 rw-p 00000000 00:00 0 
7f78b275f000-7f78b291f000 r-xp 00000000 08:13 687137                     /lib/x86_64-linux-gnu/libc-2.21.so
7f78b291f000-7f78b2b1f000 ---p 001c0000 08:13 687137                     /lib/x86_64-linux-gnu/libc-2.21.so
7f78b2b1f000-7f78b2b23000 r--p 001c0000 08:13 687137                     /lib/x86_64-linux-gnu/libc-2.21.so
7f78b2b23000-7f78b2b25000 rw-p 001c4000 08:13 687137                     /lib/x86_64-linux-gnu/libc-2.21.so
7f78b2b25000-7f78b2b29000 rw-p 00000000 00:00 0 
7f78b2b29000-7f78b2b2c000 r-xp 00000000 08:13 687133                     /lib/x86_64-linux-gnu/libdl-2.21.so
7f78b2b2c000-7f78b2d2b000 ---p 00003000 08:13 687133                     /lib/x86_64-linux-gnu/libdl-2.21.so
7f78b2d2b000-7f78b2d2c000 r--p 00002000 08:13 687133                     /lib/x86_64-linux-gnu/libdl-2.21.so
7f78b2d2c000-7f78b2d2d000 rw-p 00003000 08:13 687133                     /lib/x86_64-linux-gnu/libdl-2.21.so
7f78b2d2d000-7f78b2d42000 r-xp 00000000 08:13 147527                     /usr/lib/jvm/java-8-oracle/lib/amd64/jli/libjli.so
7f78b2d42000-7f78b2f42000 ---p 00015000 08:13 147527                     /usr/lib/jvm/java-8-oracle/lib/amd64/jli/libjli.so
7f78b2f42000-7f78b2f43000 rw-p 00015000 08:13 147527                     /usr/lib/jvm/java-8-oracle/lib/amd64/jli/libjli.so
7f78b2f43000-7f78b2f5b000 r-xp 00000000 08:13 687120                     /lib/x86_64-linux-gnu/libpthread-2.21.so
7f78b2f5b000-7f78b315b000 ---p 00018000 08:13 687120                     /lib/x86_64-linux-gnu/libpthread-2.21.so
7f78b315b000-7f78b315c000 r--p 00018000 08:13 687120                     /lib/x86_64-linux-gnu/libpthread-2.21.so
7f78b315c000-7f78b315d000 rw-p 00019000 08:13 687120                     /lib/x86_64-linux-gnu/libpthread-2.21.so
7f78b315d000-7f78b3161000 rw-p 00000000 00:00 0 
7f78b3161000-7f78b3185000 r-xp 00000000 08:13 687131                     /lib/x86_64-linux-gnu/ld-2.21.so
7f78b318b000-7f78b325e000 rw-p 00000000 00:00 0 
7f78b325e000-7f78b3261000 ---p 00000000 00:00 0 
7f78b3261000-7f78b3363000 rw-p 00000000 00:00 0                          [stack:10549]
7f78b3368000-7f78b3369000 rw-p 00000000 00:00 0 
7f78b3369000-7f78b3378000 r--s 000df000 08:13 1701708                    /home/mirza/Android/Sdk/build-tools/23.0.2/lib/dx.jar
7f78b3378000-7f78b3380000 rw-s 00000000 08:13 1179888                    /tmp/hsperfdata_root/10544
7f78b3380000-7f78b3381000 rw-p 00000000 00:00 0 
7f78b3381000-7f78b3382000 ---p 00000000 00:00 0 
7f78b3382000-7f78b3384000 rw-p 00000000 00:00 0 
7f78b3384000-7f78b3385000 r--p 00023000 08:13 687131                     /lib/x86_64-linux-gnu/ld-2.21.so
7f78b3385000-7f78b3386000 rw-p 00024000 08:13 687131                     /lib/x86_64-linux-gnu/ld-2.21.so
7f78b3386000-7f78b3387000 rw-p 00000000 00:00 0 
7ffdc6667000-7ffdc6688000 rw-p 00000000 00:00 0                          [stack]
7ffdc6774000-7ffdc6776000 r--p 00000000 00:00 0                          [vvar]
7ffdc6776000-7ffdc6778000 r-xp 00000000 00:00 0                          [vdso]
ffffffffff600000-ffffffffff601000 r-xp 00000000 00:00 0                  [vsyscall]

VM Arguments:
jvm_args: -Djava.awt.headless=true -Xmx4g -Dfile.encoding=UTF-8 -Duser.country=US -Duser.language=en -Duser.variant 
java_command: com.android.dx.command.Main --dex --num-threads=4 --multi-dex --main-dex-list /home/mirza/Downloads/Kebelet/app/build/intermediates/multi-dex/debug/maindexlist.txt --output /home/mirza/Downloads/Kebelet/app/build/intermediates/transforms/dex/debug/folders/1000/1f/main /home/mirza/Downloads/Kebelet/app/build/intermediates/transforms/jarMerging/debug/jars/1/1f/combined.jar
java_class_path (initial): /home/mirza/Android/Sdk/build-tools/23.0.2/lib/dx.jar
Launcher Type: SUN_STANDARD

Environment Variables:
PATH=/usr/local/sbin:/usr/local/bin:/usr/sbin:/usr/bin:/sbin:/bin
USERNAME=root
LD_LIBRARY_PATH=.:
SHELL=/bin/bash
DISPLAY=:0

Signal Handlers:
SIGSEGV: [libjvm.so+0xabb070], sa_mask[0]=11111111011111111101111111111110, sa_flags=SA_RESTART|SA_SIGINFO
SIGBUS: [libjvm.so+0xabb070], sa_mask[0]=11111111011111111101111111111110, sa_flags=SA_RESTART|SA_SIGINFO
SIGFPE: [libjvm.so+0x918480], sa_mask[0]=11111111011111111101111111111110, sa_flags=SA_RESTART|SA_SIGINFO
SIGPIPE: [libjvm.so+0x918480], sa_mask[0]=11111111011111111101111111111110, sa_flags=SA_RESTART|SA_SIGINFO
SIGXFSZ: [libjvm.so+0x918480], sa_mask[0]=11111111011111111101111111111110, sa_flags=SA_RESTART|SA_SIGINFO
SIGILL: [libjvm.so+0x918480], sa_mask[0]=11111111011111111101111111111110, sa_flags=SA_RESTART|SA_SIGINFO
SIGUSR1: SIG_DFL, sa_mask[0]=00000000000000000000000000000000, sa_flags=none
SIGUSR2: [libjvm.so+0x919ab0], sa_mask[0]=00100000000000000000000000000000, sa_flags=SA_RESTART|SA_SIGINFO
SIGHUP: [libjvm.so+0x91aeb0], sa_mask[0]=11111111011111111101111111111110, sa_flags=SA_RESTART|SA_SIGINFO
SIGINT: [libjvm.so+0x91aeb0], sa_mask[0]=11111111011111111101111111111110, sa_flags=SA_RESTART|SA_SIGINFO
SIGTERM: [libjvm.so+0x91aeb0], sa_mask[0]=11111111011111111101111111111110, sa_flags=SA_RESTART|SA_SIGINFO
SIGQUIT: [libjvm.so+0x91aeb0], sa_mask[0]=11111111011111111101111111111110, sa_flags=SA_RESTART|SA_SIGINFO


---------------  S Y S T E M  ---------------

OS:DISTRIB_ID=Ubuntu
DISTRIB_RELEASE=15.10
DISTRIB_CODENAME=wily
DISTRIB_DESCRIPTION="Ubuntu 15.10"

uname:Linux 4.2.0-34-generic #39-Ubuntu SMP Thu Mar 10 22:13:01 UTC 2016 x86_64
libc:glibc 2.21 NPTL 2.21 
rlimit: STACK 8192k, CORE 0k, NPROC 30905, NOFILE 65536, AS infinity
load average:4,57 2,34 1,59

/proc/meminfo:
MemTotal:        7945832 kB
MemFree:           53296 kB
MemAvailable:     165244 kB
Buffers:           19608 kB
Cached:           253648 kB
SwapCached:            0 kB
Active:          7374864 kB
Inactive:         213148 kB
Active(anon):    7316372 kB
Inactive(anon):   160724 kB
Active(file):      58492 kB
Inactive(file):    52424 kB
Unevictable:          96 kB
Mlocked:              96 kB
SwapTotal:             0 kB
SwapFree:              0 kB
Dirty:               268 kB
Writeback:             0 kB
AnonPages:       7314904 kB
Mapped:           300892 kB
Shmem:            162320 kB
Slab:              90552 kB
SReclaimable:      43008 kB
SUnreclaim:        47544 kB
KernelStack:       14560 kB
PageTables:        69520 kB
NFS_Unstable:          0 kB
Bounce:                0 kB
WritebackTmp:          0 kB
CommitLimit:     3972916 kB
Committed_AS:   14649720 kB
VmallocTotal:   34359738367 kB
VmallocUsed:      393288 kB
VmallocChunk:   34358947836 kB
HardwareCorrupted:     0 kB
AnonHugePages:   4534272 kB
CmaTotal:              0 kB
CmaFree:               0 kB
HugePages_Total:       0
HugePages_Free:        0
HugePages_Rsvd:        0
HugePages_Surp:        0
Hugepagesize:       2048 kB
DirectMap4k:      260736 kB
DirectMap2M:     7897088 kB


CPU:total 4 (2 cores per cpu, 2 threads per core) family 6 model 42 stepping 7, cmov, cx8, fxsr, mmx, sse, sse2, sse3, ssse3, sse4.1, sse4.2, popcnt, avx, aes, clmul, ht, tsc, tscinvbit

/proc/cpuinfo:
processor	: 0
vendor_id	: GenuineIntel
cpu family	: 6
model		: 42
model name	: Intel(R) Core(TM) i5-2520M CPU @ 2.50GHz
stepping	: 7
microcode	: 0x29
cpu MHz		: 2500.000
cache size	: 3072 KB
physical id	: 0
siblings	: 4
core id		: 0
cpu cores	: 2
apicid		: 0
initial apicid	: 0
fpu		: yes
fpu_exception	: yes
cpuid level	: 13
wp		: yes
flags		: fpu vme de pse tsc msr pae mce cx8 apic sep mtrr pge mca cmov pat pse36 clflush dts acpi mmx fxsr sse sse2 ss ht tm pbe syscall nx rdtscp lm constant_tsc arch_perfmon pebs bts nopl xtopology nonstop_tsc aperfmperf eagerfpu pni pclmulqdq dtes64 monitor ds_cpl vmx smx est tm2 ssse3 cx16 xtpr pdcm pcid sse4_1 sse4_2 x2apic popcnt tsc_deadline_timer aes xsave avx lahf_lm ida arat epb pln pts dtherm tpr_shadow vnmi flexpriority ept vpid xsaveopt
bugs		:
bogomips	: 4984.11
clflush size	: 64
cache_alignment	: 64
address sizes	: 36 bits physical, 48 bits virtual
power management:

processor	: 1
vendor_id	: GenuineIntel
cpu family	: 6
model		: 42
model name	: Intel(R) Core(TM) i5-2520M CPU @ 2.50GHz
stepping	: 7
microcode	: 0x29
cpu MHz		: 2500.000
cache size	: 3072 KB
physical id	: 0
siblings	: 4
core id		: 0
cpu cores	: 2
apicid		: 1
initial apicid	: 1
fpu		: yes
fpu_exception	: yes
cpuid level	: 13
wp		: yes
flags		: fpu vme de pse tsc msr pae mce cx8 apic sep mtrr pge mca cmov pat pse36 clflush dts acpi mmx fxsr sse sse2 ss ht tm pbe syscall nx rdtscp lm constant_tsc arch_perfmon pebs bts nopl xtopology nonstop_tsc aperfmperf eagerfpu pni pclmulqdq dtes64 monitor ds_cpl vmx smx est tm2 ssse3 cx16 xtpr pdcm pcid sse4_1 sse4_2 x2apic popcnt tsc_deadline_timer aes xsave avx lahf_lm ida arat epb pln pts dtherm tpr_shadow vnmi flexpriority ept vpid xsaveopt
bugs		:
bogomips	: 4984.11
clflush size	: 64
cache_alignment	: 64
address sizes	: 36 bits physical, 48 bits virtual
power management:

processor	: 2
vendor_id	: GenuineIntel
cpu family	: 6
model		: 42
model name	: Intel(R) Core(TM) i5-2520M CPU @ 2.50GHz
stepping	: 7
microcode	: 0x29
cpu MHz		: 1821.875
cache size	: 3072 KB
physical id	: 0
siblings	: 4
core id		: 1
cpu cores	: 2
apicid		: 2
initial apicid	: 2
fpu		: yes
fpu_exception	: yes
cpuid level	: 13
wp		: yes
flags		: fpu vme de pse tsc msr pae mce cx8 apic sep mtrr pge mca cmov pat pse36 clflush dts acpi mmx fxsr sse sse2 ss ht tm pbe syscall nx rdtscp lm constant_tsc arch_perfmon pebs bts nopl xtopology nonstop_tsc aperfmperf eagerfpu pni pclmulqdq dtes64 monitor ds_cpl vmx smx est tm2 ssse3 cx16 xtpr pdcm pcid sse4_1 sse4_2 x2apic popcnt tsc_deadline_timer aes xsave avx lahf_lm ida arat epb pln pts dtherm tpr_shadow vnmi flexpriority ept vpid xsaveopt
bugs		:
bogomips	: 4984.11
clflush size	: 64
cache_alignment	: 64
address sizes	: 36 bits physical, 48 bits virtual
power management:

processor	: 3
vendor_id	: GenuineIntel
cpu family	: 6
model		: 42
model name	: Intel(R) Core(TM) i5-2520M CPU @ 2.50GHz
stepping	: 7
microcode	: 0x29
cpu MHz		: 2499.902
cache size	: 3072 KB
physical id	: 0
siblings	: 4
core id		: 1
cpu cores	: 2
apicid		: 3
initial apicid	: 3
fpu		: yes
fpu_exception	: yes
cpuid level	: 13
wp		: yes
flags		: fpu vme de pse tsc msr pae mce cx8 apic sep mtrr pge mca cmov pat pse36 clflush dts acpi mmx fxsr sse sse2 ss ht tm pbe syscall nx rdtscp lm constant_tsc arch_perfmon pebs bts nopl xtopology nonstop_tsc aperfmperf eagerfpu pni pclmulqdq dtes64 monitor ds_cpl vmx smx est tm2 ssse3 cx16 xtpr pdcm pcid sse4_1 sse4_2 x2apic popcnt tsc_deadline_timer aes xsave avx lahf_lm ida arat epb pln pts dtherm tpr_shadow vnmi flexpriority ept vpid xsaveopt
bugs		:
bogomips	: 4984.11
clflush size	: 64
cache_alignment	: 64
address sizes	: 36 bits physical, 48 bits virtual
power management:



Memory: 4k page, physical 7945832k(53296k free), swap 0k(0k free)

vm_info: Java HotSpot(TM) 64-Bit Server VM (25.77-b03) for linux-amd64 JRE (1.8.0_77-b03), built on Mar 20 2016 22:00:46 by "java_re" with gcc 4.3.0 20080428 (Red Hat 4.3.0-8)

time: Sun Apr  3 16:59:44 2016
elapsed time: 34 seconds (0d 0h 0m 34s)

